simulation/qsim/AP1_Exercice_1.msim.vcd
$comment
	File created using the following command:
		vcd file AP1_Exercice_1.msim.vcd -direction
$end
$date
	Tue Jul 25 11:42:19 2023
$end
$version
	ModelSim Version 10.5b
$end
$timescale
	1ps
$end

$scope module additionneur1bit_vlg_vec_tst $end
$var reg 1 ! a $end
$var reg 1 " b $end
$var wire 1 # Carry $end
$var wire 1 $ Somme $end

$scope module i1 $end
$var wire 1 % gnd $end
$var wire 1 & vcc $end
$var wire 1 ' unknown $end
$var tri1 1 ( devclrn $end
$var tri1 1 ) devpor $end
$var tri1 1 * devoe $end
$var wire 1 + Somme~output_o $end
$var wire 1 , Carry~output_o $end
$var wire 1 - a~input_o $end
$var wire 1 . b~input_o $end
$var wire 1 / Somme~0_combout $end
$var wire 1 0 Carry~0_combout $end
$upscope $end
$upscope $end
$enddefinitions $end
#0
$dumpvars
0!
0"
0#
0$
0%
1&
x'
1(
1)
1*
0+
0,
0-
0.
0/
00
$end
#4000000
1!
1-
1/
1+
1$
#8000000
1"
0!
1.
0-
#12000000
1!
1-
10
0/
0+
1,
1#
0$
#16000000
0"
0!
0.
0-
00
0,
0#
#20000000
1!
1-
1/
1+
1$
#24000000
1"
0!
1.
0-
#28000000
1!
1-
10
0/
0+
1,
1#
0$
#32000000
0"
0!
0.
0-
00
0,
0#
#36000000
1!
1-
1/
1+
1$
#40000000
1"
0!
1.
0-
#44000000
1!
1-
10
0/
0+
1,
1#
0$
#48000000
0"
0!
0.
0-
00
0,
0#
#52000000
1!
1-
1/
1+
1$
#56000000
1"
0!
1.
0-
#60000000
1!
1-
10
0/
0+
1,
1#
0$
#64000000
0"
0!
0.
0-
00
0,
0#
#68000000
1!
1-
1/
1+
1$
#72000000
1"
0!
1.
0-
#76000000
1!
1-
10
0/
0+
1,
1#
0$
#80000000
0"
0!
0.
0-
00
0,
0#
#84000000
1!
1-
1/
1+
1$
#88000000
1"
0!
1.
0-
#92000000
1!
1-
10
0/
0+
1,
1#
0$
#96000000
0"
0!
0.
0-
00
0,
0#
